{
  "tags": {
    "allowUnknownTags": true,
    "dictionaries": [
      "jsdoc"
    ]
  },
  "source": {
    "include": [
      "index.js",
      "lib"
    ],
    "includePattern": ".+\\.js(doc)?$",
    "excludePattern": "(^|\\/|\\\\)_"
  },
  "plugins": [],
  "templates": {
    "cleverLinks": false,
    "monospaceLinks": false
  },
  "opts": {
    "template": "./node_modules/ink-docstrap/template",
    "encoding": "utf8",
    "destination": "./docs",
    "recurse": true
  }
}
